[
    {
        "description": "",
        "diskSizeInMB": 0,
        "distributed": true,
        "expirySettings": {
            "timeoutInSec": {
                "value": "300"
            },
            "valuesNull": false
        },
        "inMemorySizeInKB": 0,
        "maxElementsInMemory": 0,
        "maxElementsOnDisk": 0,
        "name": "efx-demo-helloWorld-response_cache",
        "overflowToDisk": false,
        "persistent": false
    }
]